[
    { "id": "Ідентифікатор", "name": "Назва", "price": "Вартість" },
    [ 1,  "iPhone",  "2000"],
    [ 2,  "Apple",   "3000"],
    [ 3,  "XBOX",    "4000"],
    [ 4,  "Samsung", "5000"],
    [ 5,  "Nokia",   "2000"],
    [ 6,  "Android", "200"],
    [ 7,  "HTC",     "100"],
    [ 8,  "Xiaomi",  "2000"],
    [ 9,  "Huawei",  "2200"],
    [ 10, "Lenovo",  "2000"],
    [ 11, "Nikon",   "12100"],
    [ 12, "Sony",    "230"],
    [ 13, "Fender",  "240"],
    [ 14, "Skoda",   "2000"],
    [ 15, "Honda",   "2000"],
    [ 16, "BMW",     "210"],
    [ 17, "Lexus",   "310"],
    [ 18, "Toyota",  "12000"],
    [ 19, "Kfc",     "7022"]
]
